{
  "cordova-sqlite-storage": {
    "source": {
      "type": "registry",
      "id": "cordova-sqlite-storage"
    },
    "is_top_level": true,
    "variables": {}
  },
  "cordova-plugin-google-analytics": {
    "source": {
      "type": "registry",
      "id": "cordova-plugin-google-analytics@^1.8.3"
    },
    "is_top_level": true,
    "variables": {}
  },
  "onesignal-cordova-plugin": {
    "source": {
      "type": "registry",
      "id": "onesignal-cordova-plugin"
    },
    "is_top_level": true,
    "variables": {}
  },
  "cordova-plugin-sim": {
    "source": {
      "type": "registry",
      "id": "cordova-plugin-sim"
    },
    "is_top_level": true,
    "variables": {}
  },
  "cordova-plugin-console": {
    "source": {
      "type": "registry",
      "id": "cordova-plugin-console@1.0.5"
    },
    "is_top_level": true,
    "variables": {}
  },
  "cordova-plugin-device": {
    "source": {
      "type": "registry",
      "id": "cordova-plugin-device@1.1.4"
    },
    "is_top_level": true,
    "variables": {}
  },
  "cordova-plugin-splashscreen": {
    "source": {
      "type": "registry",
      "id": "cordova-plugin-splashscreen@~4.0.1"
    },
    "is_top_level": true,
    "variables": {}
  },
  "cordova-plugin-statusbar": {
    "source": {
      "type": "registry",
      "id": "cordova-plugin-statusbar@2.2.2"
    },
    "is_top_level": true,
    "variables": {}
  },
  "cordova-plugin-whitelist": {
    "source": {
      "type": "registry",
      "id": "cordova-plugin-whitelist@1.3.1"
    },
    "is_top_level": true,
    "variables": {}
  },
  "ionic-plugin-keyboard": {
    "source": {
      "type": "registry",
      "id": "ionic-plugin-keyboard@~2.2.1"
    },
    "is_top_level": true,
    "variables": {}
  },
  "cordova-sms-plugin": {
    "source": {
      "type": "registry",
      "id": "cordova-sms-plugin"
    },
    "is_top_level": true,
    "variables": {}
  },
  "cordova-plugin-code-push": {
    "source": {
      "type": "registry",
      "id": "cordova-plugin-code-push@^1.9.7-beta"
    },
    "is_top_level": true,
    "variables": {}
  },
  "com-sarriaroman-photoviewer": {
    "source": {
      "type": "registry",
      "id": "com-sarriaroman-photoviewer@1.1.11"
    },
    "is_top_level": true,
    "variables": {}
  },
  "cordova-plugin-background-fetch": {
    "source": {
      "type": "registry",
      "id": "cordova-plugin-background-fetch"
    },
    "is_top_level": true,
    "variables": {}
  },
  "cordova-plugin-badge": {
    "source": {
      "type": "registry",
      "id": "cordova-plugin-badge"
    },
    "is_top_level": true,
    "variables": {}
  },
  "code-push": {
    "source": {
      "type": "registry",
      "id": "code-push@2.0.1-beta"
    },
    "is_top_level": false,
    "variables": {}
  },
  "cordova-plugin-file": {
    "source": {
      "type": "registry",
      "id": "cordova-plugin-file@>=4.3.0"
    },
    "is_top_level": false,
    "variables": {}
  },
  "cordova-plugin-compat": {
    "source": {
      "type": "registry",
      "id": "cordova-plugin-compat@^1.0.0"
    },
    "is_top_level": false,
    "variables": {}
  },
  "cordova-plugin-file-transfer": {
    "source": {
      "type": "registry",
      "id": "cordova-plugin-file-transfer@>=1.3.0"
    },
    "is_top_level": false,
    "variables": {}
  },
  "cordova-plugin-zip": {
    "source": {
      "type": "registry",
      "id": "cordova-plugin-zip@>=3.0.0"
    },
    "is_top_level": false,
    "variables": {}
  },
  "cordova-plugin-dialogs": {
    "source": {
      "type": "registry",
      "id": "cordova-plugin-dialogs@>=1.1.1"
    },
    "is_top_level": false,
    "variables": {}
  },
  "cordova-plugin-app-version": {
    "source": {
      "type": "registry",
      "id": "cordova-plugin-app-version@^0.1.9"
    },
    "is_top_level": true,
    "variables": {}
  },
  "cordova-plugin-inappbrowser": {
    "source": {
      "type": "registry",
      "id": "cordova-plugin-inappbrowser@3.2.0"
    },
    "is_top_level": true,
    "variables": {}
  }
}